%YAML 1.1
%TAG !u! tag:unity3d.com,2011:
--- !u!1045 &1
EditorBuildSettings:
  m_ObjectHideFlags: 0
  serializedVersion: 2
  m_Scenes:
  - enabled: 1
    path: Assets/Scenes/StupidDemoTricksAreForKids.unity
    guid: fdf9b57c4b898244caf505ea7885a77d
  m_configObjects:
    Unity.XR.OpenVR.Settings: {fileID: 11400000, guid: 2a838d0aecc06d3459878bd0b92c5d7d, type: 2}
    com.unity.xr.management.loader_settings: {fileID: 11400000, guid: 8933958686197604ba8646e305974bc0, type: 2}
